25 80
00000000000000000000010000000000000000000000000000000000001000000000000000000000
00000000000000000000010000000000000000000000000000000000001000000000000000000000
00000000000000000000010000000000000000000000000000000000001000000000000000000000
00000000000000000000000000000000000000000000000000000000000000000000000000000000
00000000000000000000010000000000000000000000000000000000001000000000000000000000
00000000000000000000010000000000000000000000000000000000001000000000000000000000
00011100011100000000010000000000000000000000000000000000001000000000111000111000
00000000000000000000010000000000000000000000000000000000001000000000000000000000
01000010100001000000010000000000000011100111000000000000001000000010000101000010
01000010100001000000000000000000000010100101000000000000000000000010000101000010
01000010100001000000010000000000000010100101000000000000001000000010000101000010
00011100011100000000010000000000000000000000000000000000001000000000111000111000
00000000000000000000010000000000000010100101000000000000001000000000000000000000
00011100011100000000010000000000000010100101000000000000001000000000111000111000
01000010100001000000010000000000000011100111000000000000001000000010000101000010
01000010100001000000000000000000000000000000000000000000000000000010000101000010
01000010100001000000010000000000000000000000000000000000001000000010000101000010
00000000000000000000010000000000000000000000000000000000001000000000000000000000
00011100011100000000010000000000000000000000000000000000001000000000111000111000
00000000000000000000010000000000000000000000000000000000001000000000000000000000
00000000000000000000010000000000000000000000000000000000001000000000000000000000
00000000000000000000000000000000000000000000000000000000000000000000000000000000
00000000000000000000010000000000000000000000000000000000001000000000000000000000
00000000000000000000010000000000000000000000000000000000001000000000000000000000
00000000000000000000010000000000000000000000000000000000001000000000000000000000